day-01/test.vcd
$comment Generated by Amaranth $end
$date 2021-12-29 13:06:20.846230 $end
$timescale 1 ps $end
$scope module bench $end
$scope module top $end
$var wire 1 ! clk $end
$var wire 1 " rst $end
$var wire 16 # o_result $end
$var wire 1 $ test $end
$var wire 16 % i_signal $end
$var wire 16 & last1 $end
$var wire 16 ' last2 $end
$var wire 16 ( last3 $end
$var wire 1 ) i_incr $end
$upscope $end
$upscope $end
$enddefinitions $end
#0
$dumpvars
0!
0"
b0 #
0$
b0 %
b0 &
b0 '
b0 (
0)
$end
#500
1!
b10010111 %
#1000
0!
#1500
b10010111 &
1!
b10010110 %
#2000
0!
#2500
b10010110 &
1!
b10010100 %
b10010111 '
#3000
0!
#3500
1!
b10010011 %
1)
b10010111 (
b10010100 &
b10010110 '
#4000
0!
#4500
1!
b10011010 %
b10010110 (
b10010011 &
b10010100 '
#5000
0!
#5500
b1 #
1!
b10011011 %
b10010100 (
b10011010 &
1$
b10010011 '
#6000
0!
#6500
b10 #
1!
b10011100 %
b10010011 (
b10011011 &
b10011010 '
#7000
0!
#7500
b11 #
1!
b10100001 %
b10011010 (
b10011100 &
b10011011 '
#8000
0!
#8500
b100 #
1!
b10100100 %
b10011011 (
b10100001 &
b10011100 '
#9000
0!
#9500
b101 #
1!
b10100101 %
b10011100 (
b10100100 &
b10100001 '
#10000
0!
#10500
b110 #
1!
b10101100 %
b10100001 (
b10100101 &
b10100100 '
#11000
0!
#11500
b111 #
1!
b10101110 %
b10100100 (
b10101100 &
b10100101 '
#12000
0!
#12500
b1000 #
1!
b10101011 %
b10100101 (
b10101110 &
b10101100 '
#13000
0!
#13500
b1001 #
1!
b10101100 %
b10101100 (
b10101011 &
b10101110 '
#14000
0!
#14500
1!
b10101000 %
b10101110 (
b10101100 &
b10101011 '
#15000
0!
#15500
1!
b10101010 %
b10101011 (
b10101000 &
b10101100 '
#16000
0!
#16500
1!
b10100111 %
b10101100 (
b10101010 &
b10101000 '
#17000
0!
#17500
1!
b10101000 %
b10101000 (
b10100111 &
b10101010 '
#18000
0!
#18500
1!
b10101010 %
b10101010 (
b10101000 &
b10100111 '
#19000
0!
#19500
1!
b10110001 %
b10100111 (
b10101010 &
b10101000 '
#20000
0!
#20500
b1010 #
1!
b10110011 %
b10101000 (
b10110001 &
b10101010 '
#21000
0!
#21500
b1011 #
1!
b10010010 %
b10101010 (
b10110011 &
b10110001 '
#22000
0!
#22500
1!
b10010000 %
b10110001 (
b10010010 &
b10110011 '
#23000
0!
#23500
1!
b10101000 %
b10110011 (
b10010000 &
b10010010 '
#24000
0!
#24500
1!
b10101010 %
b10010010 (
b10101000 &
b10010000 '
#25000
0!
#25500
b1100 #
1!
b10101110 %
b10010000 (
b10101010 &
b10101000 '
#26000
0!
#26500
b1101 #
1!
b10111001 %
b10101000 (
b10101110 &
b10101010 '
#27000
0!
#27500
b1110 #
1!
b10111000 %
b10101010 (
b10111001 &
b10101110 '
#28000
0!
#28500
b1111 #
1!
b10110111 %
b10101110 (
b10111000 &
b10111001 '
#29000
0!
#29500
b10000 #
1!
b10111001 %
b10111001 (
b10110111 &
b10111000 '
#30000
0!
#30500
1!
b10110010 %
b10111000 (
b10111001 &
b10110111 '
#31000
0!
#31500
1!
b10110011 %
b10110111 (
b10110010 &
b10111001 '
#32000
0!
#32500
1!
b10100001 %
b10111001 (
b10110011 &
b10110010 '
#33000
0!
#33500
1!
b10100100 %
b10110010 (
b10100001 &
b10110011 '
#34000
0!
#34500
1!
b10100010 %
b10110011 (
b10100100 &
b10100001 '
#35000
0!
#35500
1!
b10100111 %
b10100001 (
b10100010 &
b10100100 '
#36000
0!
#36500
b10001 #
1!
b10110000 %
b10100100 (
b10100111 &
b10100010 '
#37000
0!
#37500
b10010 #
1!
b10101111 %
b10100010 (
b10110000 &
b10100111 '
#38000
0!
#38500
b10011 #
1!
b10110010 %
b10100111 (
b10101111 &
b10110000 '
#39000
0!
#39500
b10100 #
1!
b10110011 %
b10110000 (
b10110010 &
b10101111 '
#40000
0!
#40500
b10101 #
1!
b10111001 %
b10101111 (
b10110011 &
b10110010 '
#41000
0!
#41500
b10110 #
1!
b10110111 %
b10110010 (
b10111001 &
b10110011 '
#42000
0!
#42500
b10111 #
1!
b10110011 %
b10110011 (
b10110111 &
b10111001 '
#43000
0!
#43500
1!
b10101110 %
b10111001 (
b10110011 &
b10110111 '
#44000
0!
#44500
1!
b10101101 %
b10110111 (
b10101110 &
b10110011 '
#45000
0!
#45500
1!
b10101110 %
b10110011 (
b10101101 &
b10101110 '
#46000
0!
#46500
1!
b11001011 %
b10101110 (
b10101110 &
b10101101 '
#47000
0!
#47500
b11000 #
1!
b11000111 %
b10101101 (
b11001011 &
b10101110 '
#48000
0!
#48500
b11001 #
1!
b11001011 %
b10101110 (
b11000111 &
b11001011 '
#49000
0!
#49500
b11010 #
1!
b11001001 %
b11001011 (
b11001011 &
b11000111 '
#50000
0!
#50500
1!
b11001000 %
b11000111 (
b11001001 &
b11001011 '
#51000
0!
#51500
b11011 #
1!
b11010010 %
b11001011 (
b11001000 &
b11001001 '
#52000
0!
#52500
b11100 #
1!
b11010001 %
b11001001 (
b11010010 &
b11001000 '
#53000
0!
#53500
b11101 #
1!
b11001111 %
b11001000 (
b11010001 &
b11010010 '
#54000
0!
#54500
b11110 #
1!
b11001011 %
b11010010 (
b11001111 &
b11010001 '
#55000
0!
#55500
1!
b11001100 %
b11010001 (
b11001011 &
b11001111 '
#56000
0!
#56500
1!
b11001101 %
b11001111 (
b11001100 &
b11001011 '
#57000
0!
#57500
1!
b11010000 %
b11001011 (
b11001101 &
b11001100 '
#58000
0!
#58500
b11111 #
1!
b11001111 %
b11001100 (
b11010000 &
b11001101 '
#59000
0!
#59500
b100000 #
1!
b11010111 %
b11001101 (
b11001111 &
b11010000 '
#60000
0!
#60500
b100001 #
1!
b11101100 %
b11010000 (
b11010111 &
b11001111 '
#61000
0!
#61500
b100010 #
1!
b11101110 %
b11001111 (
b11101100 &
b11010111 '
#62000
0!
#62500
b100011 #
1!
b11101100 %
b11010111 (
b11101110 &
b11101100 '
#63000
0!
#63500
b100100 #
1!
b11101110 %
b11101100 (
b11101100 &
b11101110 '
#64000
0!
#64500
b100101 #
1!
b11110001 %
b11101110 (
b11101110 &
b11101100 '
#65000
0!
#65500
b100110 #
1!
b11110010 %
b11101100 (
b11110001 &
b11101110 '
#66000
0!
#66500
b100111 #
1!
b11100010 %
b11101110 (
b11110010 &
b11110001 '
#67000
0!
#67500
1!
b11100001 %
b11110001 (
b11100010 &
b11110010 '
#68000
0!
#68500
1!
b11011101 %
b11110010 (
b11100001 &
b11100010 '
#69000
0!
#69500
1!
b11011010 %
b11100010 (
b11011101 &
b11100001 '
#70000
0!
#70500
1!
b11001111 %
b11100001 (
b11011010 &
b11011101 '
#71000
0!
#71500
1!
b11010001 %
b11011101 (
b11001111 &
b11011010 '
#72000
0!
#72500
1!
b11000010 %
b11011010 (
b11010001 &
b11001111 '
#73000
0!
#73500
1!
b10111111 %
b11001111 (
b11000010 &
b11010001 '
#74000
0!
#74500
1!
b11001011 %
b11010001 (
b10111111 &
b11000010 '
#75000
0!
#75500
1!
b11001010 %
b11000010 (
b11001011 &
b10111111 '
#76000
0!
#76500
b101000 #
1!
b10110110 %
b10111111 (
b11001010 &
b11001011 '
#77000
0!
#77500
1!
b10100000 %
b11001011 (
b10110110 &
b11001010 '
#78000
0!
#78500
1!
b10011111 %
b11001010 (
b10100000 &
b10110110 '
#79000
0!
#79500
1!
b10111111 %
b10110110 (
b10011111 &
b10100000 '
#80000
0!
#80500
b101001 #
1!
b10111001 %
b10100000 (
b10111111 &
b10011111 '
#81000
0!
#81500
b101010 #
1!
b10101011 %
b10011111 (
b10111001 &
b10111111 '
#82000
0!
#82500
b101011 #
1!
b10111111 %
b10111111 (
b10101011 &
b10111001 '
#83000
0!
#83500
1!
b10111001 %
b10111001 (
b10111111 &
b10101011 '
#84000
0!
#84500
1!
b10101100 %
b10101011 (
b10111001 &
b10111111 '
#85000
0!
#85500
b101100 #
1!
b10110010 %
b10111111 (
b10101100 &
b10111001 '
#86000
0!
#86500
1!
b11000110 %
b10111001 (
b10110010 &
b10101100 '
#87000
0!
#87500
b101101 #
1!
b11001000 %
b10101100 (
b11000110 &
b10110010 '
#88000
0!
#88500
b101110 #
1!
b10110000 %
b10110010 (
b11001000 &
b11000110 '
#89000
0!
#89500
1!
b10110101 %
b11000110 (
b10110000 &
b11001000 '
#90000
0!
#90500
1!
b10111000 %
b11001000 (
b10110101 &
b10110000 '
#91000
0!
#91500
1!
b10111001 %
b10110000 (
b10111000 &
b10110101 '
#92000
0!
#92500
b101111 #
1!
b11000001 %
b10110101 (
b10111001 &
b10111000 '
#93000
0!
#93500
b110000 #
1!
b11001101 %
b10111000 (
b11000001 &
b10111001 '
#94000
0!
#94500
b110001 #
1!
b11001110 %
b10111001 (
b11001101 &
b11000001 '
#95000
0!
#95500
b110010 #
1!
b11001111 %
b11000001 (
b11001110 &
b11001101 '
#96000
0!
#96500
b110011 #
1!
b11001011 %
b11001101 (
b11001111 &
b11001110 '
#97000
0!
#97500
1!
b11100101 %
b11001110 (
b11001011 &
b11001111 '
#98000
0!
#98500
b110100 #
1!
b11101000 %
b11001111 (
b11100101 &
b11001011 '
#99000
0!
#99500
b110101 #
1!
b11110010 %
b11001011 (
b11101000 &
b11100101 '
#100000
0!
#100500
b110110 #
1!
b11111110 %
b11100101 (
b11110010 &
b11101000 '
#101000
0!
#101500
b110111 #
1!
b11111010 %
b11101000 (
b11111110 &
b11110010 '
#102000
0!
#102500
b111000 #
1!
b100001010 %
b11110010 (
b11111010 &
b11111110 '
#103000
0!
#103500
b111001 #
1!
b100001001 %
b11111110 (
b100001010 &
b11111010 '
#104000
0!
#104500
b111010 #
1!
b100100000 %
b11111010 (
b100001001 &
b100001010 '
#105000
0!
#105500
b111011 #
1!
b100010110 %
b100001010 (
b100100000 &
b100001001 '
#106000
0!
#106500
b111100 #
1!
b100010001 %
b100001001 (
b100010110 &
b100100000 '
#107000
0!
#107500
b111101 #
1!
b100010010 %
b100100000 (
b100010001 &
b100010110 '
#108000
0!
#108500
1!
b11111101 %
b100010110 (
b100010010 &
b100010001 '
#109000
0!
#109500
1!
b11111111 %
b100010001 (
b11111101 &
b100010010 '
#110000
0!
#110500
1!
b11111101 %
b100010010 (
b11111111 &
b11111101 '
#111000
0!
#111500
1!
b11110110 %
b11111101 (
b11111101 &
b11111111 '
#112000
0!
#112500
1!
b11110101 %
b11111111 (
b11110110 &
b11111101 '
#113000
0!
#113500
1!
b11110111 %
b11111101 (
b11110101 &
b11110110 '
#114000
0!
#114500
1!
b11110011 %
b11110110 (
b11110111 &
b11110101 '
#115000
0!
#115500
1!
b11110110 %
b11110101 (
b11110011 &
b11110111 '
#116000
0!
#116500
b111110 #
1!
b11111000 %
b11110111 (
b11110110 &
b11110011 '
#117000
0!
#117500
b111111 #
1!
b11111011 %
b11110011 (
b11111000 &
b11110110 '
#118000
0!
#118500
b1000000 #
1!
b11110101 %
b11110110 (
b11111011 &
b11111000 '
#119000
0!
#119500
1!
b11110011 %
b11111000 (
b11110101 &
b11111011 '
#120000
0!
#120500
1!
b11110010 %
b11111011 (
b11110011 &
b11110101 '
#121000
0!
#121500
1!
b100000011 %
b11110101 (
b11110010 &
b11110011 '
#122000
0!
#122500
b1000001 #
1!
b11111110 %
b11110011 (
b100000011 &
b11110010 '
#123000
0!
#123500
b1000010 #
1!
b100000011 %
b11110010 (
b11111110 &
b100000011 '
#124000
0!
#124500
b1000011 #
1!
b100000101 %
b100000011 (
b100000011 &
b11111110 '
#125000
0!
#125500
b1000100 #
1!
b100010010 %
b11111110 (
b100000101 &
b100000011 '
#126000
0!
#126500
b1000101 #
1!
b100001111 %
b100000011 (
b100010010 &
b100000101 '
#127000
0!
#127500
b1000110 #
1!
b100010001 %
b100000101 (
b100001111 &
b100010010 '
#128000
0!
#128500
b1000111 #
1!
b100010011 %
b100010010 (
b100010001 &
b100001111 '
#129000
0!
#129500
b1001000 #
1!
b100011011 %
b100001111 (
b100010011 &
b100010001 '
#130000
0!
#130500
b1001001 #
1!
b100011111 %
b100010001 (
b100011011 &
b100010011 '
#131000
0!
#131500
b1001010 #
1!
b100011110 %
b100010011 (
b100011111 &
b100011011 '
#132000
0!
#132500
b1001011 #
1!
b100011111 %
b100011011 (
b100011110 &
b100011111 '
#133000
0!
#133500
b1001100 #
1!
b100011110 %
b100011111 (
b100011111 &
b100011110 '
#134000
0!
#134500
1!
b100101011 %
b100011110 (
b100011110 &
b100011111 '
#135000
0!
#135500
b1001101 #
1!
b100100111 %
b100011111 (
b100101011 &
b100011110 '
#136000
0!
#136500
b1001110 #
1!
b100101010 %
b100011110 (
b100100111 &
b100101011 '
#137000
0!
#137500
b1001111 #
1!
b100101100 %
b100101011 (
b100101010 &
b100100111 '
#138000
0!
#138500
b1010000 #
1!
b100101011 %
b100100111 (
b100101100 &
b100101010 '
#139000
0!
#139500
b1010001 #
1!
b100101110 %
b100101010 (
b100101011 &
b100101100 '
#140000
0!
#140500
b1010010 #
1!
b100101101 %
b100101100 (
b100101110 &
b100101011 '
#141000
0!
#141500
b1010011 #
1!
b100101100 %
b100101011 (
b100101101 &
b100101110 '
#142000
0!
#142500
b1010100 #
1!
b100110011 %
b100101110 (
b100101100 &
b100101101 '
#143000
0!
#143500
b1010101 #
1!
b100101110 %
b100101101 (
b100110011 &
b100101100 '
#144000
0!
#144500
b1010110 #
1!
b101000110 %
b100101100 (
b100101110 &
b100110011 '
#145000
0!
#145500
b1010111 #
1!
b101000011 %
b100110011 (
b101000110 &
b100101110 '
#146000
0!
#146500
b1011000 #
1!
b101000001 %
b100101110 (
b101000011 &
b101000110 '
#147000
0!
#147500
b1011001 #
1!
b100111110 %
b101000110 (
b101000001 &
b101000011 '
#148000
0!
#148500
1!
b100111000 %
b101000011 (
b100111110 &
b101000001 '
#149000
0!
#149500
1!
b100101110 %
b101000001 (
b100111000 &
b100111110 '
#150000
0!
#150500
1!
b100110000 %
b100111110 (
b100101110 &
b100111000 '
#151000
0!
#151500
1!
b100101101 %
b100111000 (
b100110000 &
b100101110 '
#152000
0!
#152500
1!
b100110010 %
b100101110 (
b100101101 &
b100110000 '
#153000
0!
#153500
b1011010 #
1!
b100110101 %
b100110000 (
b100110010 &
b100101101 '
#154000
0!
#154500
b1011011 #
1!
b101001000 %
b100101101 (
b100110101 &
b100110010 '
#155000
0!
#155500
b1011100 #
1!
b101000110 %
b100110010 (
b101001000 &
b100110101 '
#156000
0!
#156500
b1011101 #
1!
b101001101 %
b100110101 (
b101000110 &
b101001000 '
#157000
0!
#157500
b1011110 #
1!
b101011010 %
b101001000 (
b101001101 &
b101000110 '
#158000
0!
#158500
b1011111 #
1!
b101101100 %
b101000110 (
b101011010 &
b101001101 '
#159000
0!
#159500
b1100000 #
1!
b101110001 %
b101001101 (
b101101100 &
b101011010 '
#160000
0!
#160500
b1100001 #
1!
b101110010 %
b101011010 (
b101110001 &
b101101100 '
#161000
0!
#161500
b1100010 #
1!
b101100110 %
b101101100 (
b101110010 &
b101110001 '
#162000
0!
#162500
1!
b101101100 %
b101110001 (
b101100110 &
b101110010 '
#163000
0!
#163500
1!
b101101011 %
b101110010 (
b101101100 &
b101100110 '
#164000
0!
#164500
1!
b101101100 %
b101100110 (
b101101011 &
b101101100 '
#165000
0!
#165500
b1100011 #
1!
b101101001 %
b101101100 (
b101101100 &
b101101011 '
#166000
0!
#166500
1!
b101110110 %
b101101011 (
b101101001 &
b101101100 '
#167000
0!
#167500
b1100100 #
1!
b101110101 %
b101101100 (
b101110110 &
b101101001 '
#168000
0!
#168500
b1100101 #
1!
b101111111 %
b101101001 (
b101110101 &
b101110110 '
#169000
0!
#169500
b1100110 #
1!
b110000001 %
b101110110 (
b101111111 &
b101110101 '
#170000
0!
#170500
b1100111 #
1!
b101111011 %
b101110101 (
b110000001 &
b101111111 '
#171000
0!
#171500
b1101000 #
1!
b101111010 %
b101111111 (
b101111011 &
b110000001 '
#172000
0!
#172500
1!
b101111001 %
b110000001 (
b101111010 &
b101111011 '
#173000
0!
#173500
1!
b101100001 %
b101111011 (
b101111001 &
b101111010 '
#174000
0!
#174500
1!
b101100000 %
b101111010 (
b101100001 &
b101111001 '
#175000
0!
#175500
1!
b101100001 %
b101111001 (
b101100000 &
b101100001 '
#176000
0!
#176500
1!
b101100101 %
b101100001 (
b101100001 &
b101100000 '
#177000
0!
#177500
b1101001 #
1!
b101100011 %
b101100000 (
b101100101 &
b101100001 '
#178000
0!
#178500
b1101010 #
1!
b101011100 %
b101100001 (
b101100011 &
b101100101 '
#179000
0!
#179500
1!
b101100100 %
b101100101 (
b101011100 &
b101100011 '
#180000
0!
#180500
1!
b101100110 %
b101100011 (
b101100100 &
b101011100 '
#181000
0!
#181500
b1101011 #
1!
b101100111 %
b101011100 (
b101100110 &
b101100100 '
#182000
0!
#182500
b1101100 #
1!
b101100110 %
b101100100 (
b101100111 &
b101100110 '
#183000
0!
#183500
b1101101 #
1!
b101100101 %
b101100110 (
b101100110 &
b101100111 '
#184000
0!
#184500
1!
b101011101 %
b101100111 (
b101100101 &
b101100110 '
#185000
0!
#185500
1!
b101100010 %
b101100110 (
b101011101 &
b101100101 '
#186000
0!
#186500
1!
b101101000 %
b101100101 (
b101100010 &
b101011101 '
#187000
0!
#187500
b1101110 #
1!
b101010101 %
b101011101 (
b101101000 &
b101100010 '
#188000
0!
#188500
1!
b101010111 %
b101100010 (
b101010101 &
b101101000 '
#189000
0!
#189500
1!
b101010110 %
b101101000 (
b101010111 &
b101010101 '
#190000
0!
#190500
1!
b101010111 %
b101010101 (
b101010110 &
b101010111 '
#191000
0!
#191500
b1101111 #
1!
b101011011 %
b101010111 (
b101010111 &
b101010110 '
#192000
0!
#192500
b1110000 #
1!
b100111101 %
b101010110 (
b101011011 &
b101010111 '
#193000
0!
#193500
1!
b101000010 %
b101010111 (
b100111101 &
b101011011 '
#194000
0!
#194500
1!
b101000100 %
b101011011 (
b101000010 &
b100111101 '
#195000
0!
#195500
1!
b101001000 %
b100111101 (
b101000100 &
b101000010 '
#196000
0!
#196500
b1110001 #
1!
b101010010 %
b101000010 (
b101001000 &
b101000100 '
#197000
0!
#197500
b1110010 #
1!
b101011110 %
b101000100 (
b101010010 &
b101001000 '
#198000
0!
#198500
b1110011 #
1!
b101000011 %
b101001000 (
b101011110 &
b101010010 '
#199000
0!
#199500
1!
b101101101 %
b101010010 (
b101000011 &
b101011110 '
#200000
0!
#200500
b1110100 #
1!
b101101100 %
b101011110 (
b101101101 &
b101000011 '
#201000
0!
#201500
b1110101 #
1!
b110000000 %
b101000011 (
b101101100 &
b101101101 '
#202000
0!
#202500
b1110110 #
1!
b110000111 %
b101101101 (
b110000000 &
b101101100 '
#203000
0!
#203500
b1110111 #
1!
b110001011 %
b101101100 (
b110000111 &
b110000000 '
#204000
0!
#204500
b1111000 #
1!
b110001010 %
b110000000 (
b110001011 &
b110000111 '
#205000
0!
#205500
b1111001 #
1!
b110000001 %
b110000111 (
b110001010 &
b110001011 '
#206000
0!
#206500
1!
b110000000 %
b110001011 (
b110000001 &
b110001010 '
#207000
0!
#207500
1!
b101101111 %
b110001010 (
b110000000 &
b110000001 '
#208000
0!
#208500
1!
b101110011 %
b110000001 (
b101101111 &
b110000000 '
#209000
0!
#209500
1!
b101111000 %
b110000000 (
b101110011 &
b101101111 '
#210000
0!
#210500
1!
b101111100 %
b101101111 (
b101111000 &
b101110011 '
#211000
0!
#211500
b1111010 #
1!
b110000110 %
b101110011 (
b101111100 &
b101111000 '
#212000
0!
#212500
b1111011 #
1!
b110000100 %
b101111000 (
b110000110 &
b101111100 '
#213000
0!
#213500
b1111100 #
1!
b110000011 %
b101111100 (
b110000100 &
b110000110 '
#214000
0!
#214500
b1111101 #
1!
b110000110 %
b110000110 (
b110000011 &
b110000100 '
#215000
0!
#215500
1!
b110010001 %
b110000100 (
b110000110 &
b110000011 '
#216000
0!
#216500
b1111110 #
1!
b101111011 %
b110000011 (
b110010001 &
b110000110 '
#217000
0!
#217500
1!
b101111010 %
b110000110 (
b101111011 &
b110010001 '
#218000
0!
#218500
1!
b101101000 %
b110010001 (
b101111010 &
b101111011 '
#219000
0!
#219500
1!
b101101011 %
b101111011 (
b101101000 &
b101111010 '
#220000
0!
#220500
1!
b101101000 %
b101111010 (
b101101011 &
b101101000 '
#221000
0!
#221500
1!
b101110010 %
b101101000 (
b101101000 &
b101101011 '
#222000
0!
#222500
b1111111 #
1!
b101101010 %
b101101011 (
b101110010 &
b101101000 '
#223000
0!
#223500
1!
b101011101 %
b101101000 (
b101101010 &
b101110010 '
#224000
0!
#224500
1!
b101010110 %
b101110010 (
b101011101 &
b101101010 '
#225000
0!
#225500
1!
b101000100 %
b101101010 (
b101010110 &
b101011101 '
#226000
0!
#226500
1!
b101000111 %
b101011101 (
b101000100 &
b101010110 '
#227000
0!
#227500
1!
b101010010 %
b101010110 (
b101000111 &
b101000100 '
#228000
0!
#228500
1!
b101010000 %
b101000100 (
b101010010 &
b101000111 '
#229000
0!
#229500
b10000000 #
1!
b101010011 %
b101000111 (
b101010000 &
b101010010 '
#230000
0!
#230500
b10000001 #
1!
b101010101 %
b101010010 (
b101010011 &
b101010000 '
#231000
0!
#231500
b10000010 #
1!
b101010001 %
b101010000 (
b101010101 &
b101010011 '
#232000
0!
#232500
b10000011 #
1!
b101001110 %
b101010011 (
b101010001 &
b101010101 '
#233000
0!
#233500
1!
b100111111 %
b101010101 (
b101001110 &
b101010001 '
#234000
0!
#234500
1!
b101000000 %
b101010001 (
b100111111 &
b101001110 '
#235000
0!
#235500
1!
b100111101 %
b101001110 (
b101000000 &
b100111111 '
#236000
0!
#236500
1!
b100111111 %
b100111111 (
b100111101 &
b101000000 '
#237000
0!
#237500
1!
b100111010 %
b101000000 (
b100111111 &
b100111101 '
#238000
0!
#238500
1!
b100111100 %
b100111101 (
b100111010 &
b100111111 '
#239000
0!
#239500
1!
b101011110 %
b100111111 (
b100111100 &
b100111010 '
#240000
0!
#240500
b10000100 #
1!
b101011111 %
b100111010 (
b101011110 &
b100111100 '
#241000
0!
#241500
b10000101 #
1!
b101100000 %
b100111100 (
b101011111 &
b101011110 '
#242000
0!
#242500
b10000110 #
1!
b101011111 %
b101011110 (
b101100000 &
b101011111 '
#243000
0!
#243500
b10000111 #
1!
b101011101 %
b101011111 (
b101011111 &
b101100000 '
#244000
0!
#244500
1!
b101011110 %
b101100000 (
b101011101 &
b101011111 '
#245000
0!
#245500
1!
b101100000 %
b101011111 (
b101011110 &
b101011101 '
#246000
0!
#246500
b10001000 #
1!
b101010111 %
b101011101 (
b101100000 &
b101011110 '
#247000
0!
#247500
1!
b101011011 %
b101011110 (
b101010111 &
b101100000 '
#248000
0!
#248500
1!
b101010011 %
b101100000 (
b101011011 &
b101010111 '
#249000
0!
#249500
1!
b101010001 %
b101010111 (
b101010011 &
b101011011 '
#250000
0!
#250500
1!
b101001111 %
b101011011 (
b101010001 &
b101010011 '
#251000
0!
#251500
1!
b101010010 %
b101010011 (
b101001111 &
b101010001 '
#252000
0!
#252500
1!
b101010101 %
b101010001 (
b101010010 &
b101001111 '
#253000
0!
#253500
b10001001 #
1!
b101010110 %
b101001111 (
b101010101 &
b101010010 '
#254000
0!
#254500
b10001010 #
1!
b101010111 %
b101010010 (
b101010110 &
b101010101 '
#255000
0!
#255500
b10001011 #
1!
b101011001 %
b101010101 (
b101010111 &
b101010110 '
#256000
0!
#256500
b10001100 #
1!
b101100111 %
b101010110 (
b101011001 &
b101010111 '
#257000
0!
#257500
b10001101 #
1!
b101101001 %
b101010111 (
b101100111 &
b101011001 '
#258000
0!
#258500
b10001110 #
1!
b101111010 %
b101011001 (
b101101001 &
b101100111 '
#259000
0!
#259500
b10001111 #
1!
b101111110 %
b101100111 (
b101111010 &
b101101001 '
#260000
0!
#260500
b10010000 #
1!
b101111000 %
b101101001 (
b101111110 &
b101111010 '
#261000
0!
#261500
b10010001 #
1!
b101111101 %
b101111010 (
b101111000 &
b101111110 '
#262000
0!
#262500
b10010010 #
1!
b110000100 %
b101111110 (
b101111101 &
b101111000 '
#263000
0!
#263500
b10010011 #
1!
b110000101 %
b101111000 (
b110000100 &
b101111101 '
#264000
0!
#264500
b10010100 #
1!
b101110111 %
b101111101 (
b110000101 &
b110000100 '
#265000
0!
#265500
1!
b101110000 %
b110000100 (
b101110111 &
b110000101 '
#266000
0!
#266500
1!
b101110100 %
b110000101 (
b101110000 &
b101110111 '
#267000
0!
#267500
1!
b101101101 %
b101110111 (
b101110100 &
b101110000 '
#268000
0!
#268500
1!
b101101111 %
b101110000 (
b101101101 &
b101110100 '
#269000
0!
#269500
1!
b101110001 %
b101110100 (
b101101111 &
b101101101 '
#270000
0!
#270500
1!
b101110010 %
b101101101 (
b101110001 &
b101101111 '
#271000
0!
#271500
b10010101 #
1!
b101110001 %
b101101111 (
b101110010 &
b101110001 '
#272000
0!
#272500
b10010110 #
1!
b101101100 %
b101110001 (
b101110001 &
b101110010 '
#273000
0!
#273500
1!
b101101011 %
b101110010 (
b101101100 &
b101110001 '
#274000
0!
#274500
1!
b101101010 %
b101110001 (
b101101011 &
b101101100 '
#275000
0!
#275500
1!
b101101100 %
b101101100 (
b101101010 &
b101101011 '
#276000
0!
#276500
1!
b101100011 %
b101101011 (
b101101100 &
b101101010 '
#277000
0!
#277500
1!
b101110100 %
b101101010 (
b101100011 &
b101101100 '
#278000
0!
#278500
b10010111 #
1!
b101011110 %
b101101100 (
b101110100 &
b101100011 '
#279000
0!
#279500
1!
b101100100 %
b101100011 (
b101011110 &
b101110100 '
#280000
0!
#280500
b10011000 #
1!
b101100110 %
b101110100 (
b101100100 &
b101011110 '
#281000
0!
#281500
1!
b101101011 %
b101011110 (
b101100110 &
b101100100 '
#282000
0!
#282500
b10011001 #
1!
b101100001 %
b101100100 (
b101101011 &
b101100110 '
#283000
0!
#283500
1!
b101100010 %
b101100110 (
b101100001 &
b101101011 '
#284000
0!
#284500
1!
b101001111 %
b101101011 (
b101100010 &
b101100001 '
#285000
0!
#285500
1!
b101000111 %
b101100001 (
b101001111 &
b101100010 '
#286000
0!
#286500
1!
b101000101 %
b101100010 (
b101000111 &
b101001111 '
#287000
0!
#287500
1!
b101000110 %
b101001111 (
b101000101 &
b101000111 '
#288000
0!
#288500
1!
b101000111 %
b101000111 (
b101000110 &
b101000101 '
#289000
0!
#289500
1!
b101010110 %
b101000101 (
b101000111 &
b101000110 '
#290000
0!
#290500
b10011010 #
1!
b101001001 %
b101000110 (
b101010110 &
b101000111 '
#291000
0!
#291500
b10011011 #
1!
b101000111 %
b101000111 (
b101001001 &
b101010110 '
#292000
0!
#292500
1!
b101010110 %
b101010110 (
b101000111 &
b101001001 '
#293000
0!
#293500
1!
b101010001 %
b101001001 (
b101010110 &
b101000111 '
#294000
0!
#294500
b10011100 #
1!
b101010000 %
b101000111 (
b101010001 &
b101010110 '
#295000
0!
#295500
b10011101 #
1!
b101001110 %
b101010110 (
b101010000 &
b101010001 '
#296000
0!
#296500
1!
b101100010 %
b101010001 (
b101001110 &
b101010000 '
#297000
0!
#297500
b10011110 #
1!
b101010111 %
b101010000 (
b101100010 &
b101001110 '
#298000
0!
#298500
b10011111 #
1!
b101011001 %
b101001110 (
b101010111 &
b101100010 '
#299000
0!
#299500
b10100000 #
1!
b101010101 %
b101100010 (
b101011001 &
b101010111 '
#300000
0!
#300500
1!
b101011110 %
b101010111 (
b101010101 &
b101011001 '
#301000
0!
#301500
b10100001 #
1!
b101011000 %
b101011001 (
b101011110 &
b101010101 '
#302000
0!
#302500
1!
b101011001 %
b101010101 (
b101011000 &
b101011110 '
#303000
0!
#303500
b10100010 #
1!
b101100000 %
b101011110 (
b101011001 &
b101011000 '
#304000
0!
#304500
b10100011 #
1!
b101100100 %
b101011000 (
b101100000 &
b101011001 '
#305000
0!
#305500
b10100100 #
1!
b110000100 %
b101011001 (
b101100100 &
b101100000 '
#306000
0!
#306500
b10100101 #
1!
b110000111 %
b101100000 (
b110000100 &
b101100100 '
#307000
0!
#307500
b10100110 #
1!
b110010110 %
b101100100 (
b110000111 &
b110000100 '
#308000
0!
#308500
b10100111 #
1!
b110001101 %
b110000100 (
b110010110 &
b110000111 '
#309000
0!
#309500
b10101000 #
1!
b110010101 %
b110000111 (
b110001101 &
b110010110 '
#310000
0!
#310500
b10101001 #
1!
b110011000 %
b110010110 (
b110010101 &
b110001101 '
#311000
0!
#311500
b10101010 #
1!
b110010010 %
b110001101 (
b110011000 &
b110010101 '
#312000
0!
#312500
b10101011 #
1!
b110001101 %
b110010101 (
b110010010 &
b110011000 '
#313000
0!
#313500
1!
b110001110 %
b110011000 (
b110001101 &
b110010010 '
#314000
0!
#314500
1!
b110001011 %
b110010010 (
b110001110 &
b110001101 '
#315000
0!
#315500
1!
b110011010 %
b110001101 (
b110001011 &
b110001110 '
#316000
0!
#316500
b10101100 #
1!
b110011001 %
b110001110 (
b110011010 &
b110001011 '
#317000
0!
#317500
b10101101 #
1!
b110011011 %
b110001011 (
b110011001 &
b110011010 '
#318000
0!
#318500
b10101110 #
1!
b110011001 %
b110011010 (
b110011011 &
b110011001 '
#319000
0!
#319500
1!
b110011101 %
b110011001 (
b110011001 &
b110011011 '
#320000
0!
#320500
b10101111 #
1!
b110100001 %
b110011011 (
b110011101 &
b110011001 '
#321000
0!
#321500
b10110000 #
1!
b110100000 %
b110011001 (
b110100001 &
b110011101 '
#322000
0!
#322500
b10110001 #
1!
b110100010 %
b110011101 (
b110100000 &
b110100001 '
#323000
0!
