day-02/day02.vcd
$comment Generated by Amaranth $end
$date 2021-12-29 15:32:30.975765 $end
$timescale 1 ps $end
$scope module bench $end
$scope module top $end
$var wire 1 ! clk $end
$var wire 1 " rst $end
$var wire 16 # i_aim $end
$var wire 16 $ i_direction $end
$var wire 16 % i_distance $end
$var wire 64 & o_forward $end
$var wire 64 ' o_depth $end
$upscope $end
$upscope $end
$enddefinitions $end
#0
$dumpvars
0!
0"
b0 #
b0 $
b0 %
b0 &
b0 '
$end
#500
1!
b1000 %
b11 $
#1000
0!
#1500
1!
b1001 %
b1000 &
b10 $
#2000
0!
#2500
1!
b1001 #
b10 %
b11 $
#3000
0!
#3500
b1010 &
b10 $
1!
b1 %
b10010 '
#4000
0!
#4500
1!
b1010 #
b1001 %
b11 $
#5000
0!
#5500
1!
b111 %
b10011 &
b1101100 '
#6000
0!
#6500
1!
b101 %
b11010 &
b10110010 '
#7000
0!
#7500
b11111 &
b1 $
1!
b11 %
b11100100 '
#8000
0!
#8500
1!
b111 #
#9000
0!
#9500
1!
b100 #
b101 %
b10 $
#10000
0!
#10500
1!
b1001 #
b10 %
b11 $
#11000
0!
#11500
b100001 &
b10 $
1!
b1000 %
b11110110 '
#12000
0!
#12500
1!
b10001 #
b11 %
#13000
0!
#13500
1!
b10100 #
b110 %
b11 $
#14000
0!
#14500
b100111 &
b10 $
1!
b10 %
b101101110 '
#15000
0!
#15500
1!
b10110 #
b100 %
#16000
0!
#16500
1!
b11010 #
b111 %
#17000
0!
#17500
1!
b100001 #
#18000
0!
#18500
1!
b101000 #
b10 %
b11 $
#19000
0!
#19500
b101001 &
b10 $
1!
b110 %
b110111110 '
#20000
0!
#20500
1!
b101110 #
b1000 %
#21000
0!
#21500
1!
b110110 #
b10 %
#22000
0!
#22500
1!
b111000 #
b1000 %
#23000
0!
#23500
1!
b1000000 #
b1001 %
b1 $
#24000
0!
#24500
1!
b110111 #
b1000 %
b10 $
#25000
0!
#25500
1!
b111111 #
b11 $
#26000
0!
#26500
b110001 &
b10 $
1!
b101 %
b1110110110 '
#27000
0!
#27500
1!
b1000100 #
b100 %
b1 $
#28000
0!
#28500
1!
b1000000 #
b11 $
#29000
0!
#29500
1!
b110101 &
b10010110110 '
#30000
0!
#30500
1!
b11 %
b111001 &
b10110110110 '
#31000
0!
#31500
b111100 &
b10 $
1!
b1001 %
b11001110110 '
#32000
0!
#32500
1!
b1001001 #
b1000 %
b11 $
#33000
0!
#33500
b1000100 &
b1 $
1!
b11 %
b100010111110 '
#34000
0!
#34500
1!
b1000110 #
b10 %
b11 $
#35000
0!
#35500
1!
b11 %
b1000110 &
b100101001010 '
#36000
0!
#36500
1!
b110 %
b1001001 &
b101000011100 '
#37000
0!
#37500
b1001111 &
b10 $
1!
b111 %
b101111000000 '
#38000
0!
#38500
1!
b1001101 #
b10 %
#39000
0!
#39500
1!
b1001111 #
b100 %
b11 $
#40000
0!
#40500
1!
b111 %
b1010011 &
b110011111100 '
#41000
0!
#41500
1!
b110 %
b1011010 &
b111100100101 '
#42000
0!
#42500
b1100000 &
b1 $
1!
b101 %
b1000011111111 '
#43000
0!
#43500
1!
b1001010 #
b1 %
#44000
0!
#44500
1!
b1001001 #
b100 %
b11 $
#45000
0!
#45500
b1100100 &
b10 $
1!
b1001 %
b1001000100011 '
#46000
0!
#46500
1!
b1010010 #
b110 %
b1 $
#47000
0!
#47500
1!
b1001100 #
b11 $
#48000
0!
#48500
b1101010 &
b1 $
1!
b1001 %
b1001111101011 '
#49000
0!
#49500
1!
b1000011 #
b1 %
b11 $
#50000
0!
#50500
b1101011 &
b10 $
1!
b1001 %
b1010000101110 '
#51000
0!
#51500
1!
b1001100 #
b100 %
b11 $
#52000
0!
#52500
b1101111 &
b10 $
1!
b11 %
b1010101011110 '
#53000
0!
#53500
1!
b1001111 #
b111 %
b11 $
#54000
0!
#54500
1!
b101 %
b1110110 &
b1011110000111 '
#55000
0!
#55500
b1111011 &
b10 $
1!
b1 %
b1100100010010 '
#56000
0!
#56500
1!
b1010000 #
b1001 %
b1 $
#57000
0!
#57500
1!
b1000111 #
b10 $
#58000
0!
#58500
1!
b1010000 #
b110 %
b11 $
#59000
0!
#59500
1!
b1 %
b10000001 &
b1101011110010 '
#60000
0!
#60500
b10000010 &
b10 $
1!
b101 %
b1101101000010 '
#61000
0!
#61500
1!
b1010101 #
b110 %
#62000
0!
#62500
1!
b1011011 #
b11 $
#63000
0!
#63500
1!
b11 %
b10001000 &
b1110101100100 '
#64000
0!
#64500
b10001011 &
b1 $
1!
b100 %
b1111001110101 '
#65000
0!
#65500
1!
b1010111 #
b1001 %
#66000
0!
#66500
1!
b1001110 #
b11 %
b10 $
#67000
0!
#67500
1!
b1010001 #
b110 %
b11 $
#68000
0!
#68500
b10010001 &
b1 $
1!
b100 %
b10000001011011 '
#69000
0!
#69500
1!
b1001101 #
b110 %
#70000
0!
#70500
1!
b1000111 #
b100 %
b11 $
#71000
0!
#71500
b10010101 &
b10 $
1!
b1 %
b10000101110111 '
#72000
0!
#72500
1!
b1001000 #
b10 %
#73000
0!
#73500
1!
b1001010 #
b1001 %
b1 $
#74000
0!
#74500
1!
b1000001 #
b1000 %
b11 $
#75000
0!
#75500
b10011101 &
b10 $
1!
b10 %
b10001101111111 '
#76000
0!
#76500
1!
b1000011 #
b11 %
#77000
0!
#77500
1!
b1000110 #
b100 %
#78000
0!
#78500
1!
b1001010 #
b11 %
b1 $
#79000
0!
#79500
1!
b1000111 #
b11 $
#80000
0!
#80500
1!
b100 %
b10100000 &
b10010001010100 '
#81000
0!
#81500
1!
b10100100 &
b10010101110000 '
b10 $
#82000
0!
#82500
1!
b1001011 #
b111 %
b11 $
#83000
0!
#83500
1!
b1001 %
b10101011 &
b10011101111101 '
#84000
0!
#84500
b10110100 &
b10 $
1!
b111 %
b10101000100000 '
#85000
0!
#85500
1!
b1010010 #
b110 %
b11 $
#86000
0!
#86500
1!
b10 %
b10111010 &
b10110000001100 '
#87000
0!
#87500
b10111100 &
b1 $
1!
b110 %
b10110010110000 '
#88000
0!
#88500
1!
b1001100 #
b111 %
b11 $
#89000
0!
#89500
1!
b1001 %
b11000011 &
b10111011000100 '
#90000
0!
#90500
b11001100 &
b10 $
1!
b101 %
b11000101110000 '
#91000
0!
#91500
1!
b1010001 #
b110 %
b11 $
#92000
0!
#92500
b11010010 &
b1 $
1!
b1001 %
b11001101010110 '
#93000
0!
#93500
1!
b1001000 #
b110 %
b11 $
#94000
0!
#94500
1!
b10 %
b11011000 &
b11010100000110 '
#95000
0!
#95500
1!
b110 %
b11011010 &
b11010110010110 '
#96000
0!
#96500
b11100000 &
b1 $
1!
b11 %
b11011101000110 '
#97000
0!
#97500
1!
b1000101 #
b1 %
b10 $
#98000
0!
#98500
1!
b1000110 #
b101 %
b11 $
#99000
0!
#99500
b11100101 &
b10 $
1!
b11 %
b11100010100100 '
#100000
0!
#100500
1!
b1001001 #
b111 %
b11 $
#101000
0!
#101500
b11101100 &
b10 $
1!
b100 %
b11101010100011 '
#102000
0!
#102500
1!
b1001101 #
b1 %
b11 $
#103000
0!
#103500
1!
b111 %
b11101101 &
b11101011110000 '
#104000
0!
#104500
b11110100 &
b10 $
1!
b1 %
b11110100001011 '
#105000
0!
#105500
1!
b1001110 #
b10 %
b1 $
#106000
0!
#106500
1!
b1001100 #
b111 %
b10 $
#107000
0!
#107500
1!
b1010011 #
b110 %
#108000
0!
#108500
1!
b1011001 #
b1000 %
b11 $
#109000
0!
#109500
1!
b10 %
b11111100 &
b11111111010011 '
#110000
0!
#110500
1!
b1 %
b11111110 &
b100000010000101 '
#111000
0!
#111500
1!
b1001 %
b11111111 &
b100000011011110 '
#112000
0!
#112500
b100001000 &
b10 $
1!
b11 %
b100001111111111 '
#113000
0!
#113500
1!
b1011100 #
b11 $
#114000
0!
#114500
b100001011 &
b10 $
1!
b110 %
b100010100010011 '
#115000
0!
#115500
1!
b1100010 #
b1000 %
b1 $
#116000
0!
#116500
1!
b1011010 #
b11 %
#117000
0!
#117500
1!
b1010111 #
b1 %
b11 $
#118000
0!
#118500
1!
b11 %
b100001100 &
b100010101101010 '
#119000
0!
#119500
1!
b111 %
b100001111 &
b100011001101111 '
#120000
0!
#120500
b100010110 &
b10 $
1!
b1001 %
b100100011010000 '
#121000
0!
#121500
1!
b1100000 #
b111 %
b11 $
#122000
0!
#122500
1!
b11 %
b100011101 &
b100101101110000 '
#123000
0!
#123500
b100100000 &
b1 $
1!
b110 %
b100110010010000 '
#124000
0!
#124500
1!
b1011010 #
b100 %
b11 $
#125000
0!
#125500
b100100100 &
b10 $
1!
b1001 %
b100110111111000 '
#126000
0!
#126500
1!
b1100011 #
b10 %
b11 $
#127000
0!
#127500
b100100110 &
b10 $
1!
b100 %
b100111010111110 '
#128000
0!
#128500
1!
b1100111 #
b10 %
b1 $
#129000
0!
#129500
1!
b1100101 #
b1 %
b10 $
#130000
0!
#130500
1!
b1100110 #
b1 $
#131000
0!
#131500
1!
b1100101 #
b110 %
b10 $
#132000
0!
#132500
1!
b1101011 #
b1 %
b11 $
#133000
0!
#133500
b100100111 &
b1 $
1!
b110 %
b100111100101001 '
#134000
0!
#134500
1!
b1100101 #
b111 %
#135000
0!
#135500
1!
b1011110 #
b11 %
b11 $
#136000
0!
#136500
1!
b100101010 &
b101000001000011 '
#137000
0!
#137500
1!
b10 %
b100101101 &
b101000101011101 '
#138000
0!
#138500
1!
b1 %
b100101111 &
b101001000011001 '
#139000
0!
#139500
b100110000 &
b10 $
1!
b111 %
b101001001110111 '
#140000
0!
#140500
1!
b1100101 #
b1001 %
b11 $
#141000
0!
#141500
b100111001 &
b10 $
1!
b101 %
b101011000000100 '
#142000
0!
#142500
1!
b1101010 #
b1001 %
#143000
0!
#143500
1!
b1110011 #
b1 $
#144000
0!
#144500
1!
b1101010 #
b11 %
b11 $
#145000
0!
#145500
1!
b1000 %
b100111100 &
b101011101000010 '
#146000
0!
#146500
b101000100 &
b10 $
1!
b11 %
b101101010010010 '
#147000
0!
#147500
1!
b1101101 #
b1001 %
b11 $
#148000
0!
#148500
1!
b100 %
b101001101 &
b101111001100111 '
#149000
0!
#149500
b101010001 &
b10 $
1!
b11 %
b110000000011011 '
#150000
0!
#150500
1!
b1110000 #
b100 %
b1 $
#151000
0!
#151500
1!
b1101100 #
b1000 %
#152000
0!
#152500
1!
b1100100 #
b100 %
#153000
0!
#153500
1!
b1100000 #
b1000 %
b10 $
#154000
0!
#154500
1!
b1101000 #
b110 %
#155000
0!
#155500
1!
b1101110 #
b101 %
#156000
0!
#156500
1!
b1110011 #
b10 %
b11 $
#157000
0!
#157500
b101010011 &
b1 $
1!
b110 %
b110000100000001 '
#158000
0!
#158500
1!
b1101101 #
b1 %
#159000
0!
#159500
1!
b1101100 #
b1001 %
#160000
0!
#160500
1!
b1100011 #
b100 %
b10 $
#161000
0!
#161500
1!
b1100111 #
b1000 %
b1 $
#162000
0!
#162500
1!
b1011111 #
b110 %
b11 $
#163000
0!
#163500
b101011001 &
b10 $
1!
b1 %
b110001100111011 '
#164000
0!
#164500
1!
b1100000 #
b111 %
b11 $
#165000
0!
#165500
b101100000 &
b1 $
1!
b10 %
b110010111011011 '
#166000
0!
#166500
1!
b1011110 #
b110 %
b11 $
#167000
0!
#167500
b101100110 &
b1 $
1!
b10 %
b110100000001111 '
#168000
0!
#168500
1!
b1011100 #
b110 %
b10 $
#169000
0!
#169500
1!
b1100010 #
b101 %
#170000
0!
#170500
1!
b1100111 #
b10 %
b11 $
#171000
0!
#171500
1!
b101101000 &
b110100011011101 '
b10 $
#172000
0!
#172500
1!
b1101001 #
b1 %
#173000
0!
#173500
1!
b1101010 #
b1000 %
b11 $
#174000
0!
#174500
1!
b1 %
b101110000 &
b110110000101101 '
#175000
0!
#175500
b101110001 &
b1 $
1!
b1001 %
b110110010010111 '
#176000
0!
#176500
1!
b1100001 #
b11 %
b11 $
#177000
0!
#177500
b101110100 &
b10 $
1!
b110 %
b110110110111010 '
#178000
0!
#178500
1!
b1100111 #
b10 %
b11 $
#179000
0!
#179500
1!
b1000 %
b101110110 &
b110111010001000 '
#180000
0!
#180500
b101111110 &
b10 $
1!
b11 %
b111000111000000 '
#181000
0!
#181500
1!
b1101010 #
b11 $
#182000
0!
#182500
1!
b100 %
b110000001 &
b111001011111110 '
#183000
0!
#183500
1!
b111 %
b110000101 &
b111010010100110 '
#184000
0!
#184500
1!
b10 %
b110001100 &
b111011110001100 '
#185000
0!
#185500
b110001110 &
b1 $
1!
b100 %
b111100001100000 '
#186000
0!
#186500
1!
b1100110 #
b1000 %
b11 $
#187000
0!
#187500
1!
b1 %
b110010110 &
b111101110010000 '
#188000
0!
#188500
1!
b1001 %
b110010111 &
b111101111110110 '
#189000
0!
#189500
b110100000 &
b10 $
1!
b11 %
b111111110001100 '
#190000
0!
#190500
1!
b1101001 #
b1 %
#191000
0!
#191500
1!
b1101010 #
b1000 %
b11 $
#192000
0!
#192500
b110101000 &
b10 $
1!
b101 %
b1000001011011100 '
#193000
0!
#193500
1!
b1101111 #
b11 %
#194000
0!
#194500
1!
b1110010 #
b101 %
b11 $
#195000
0!
#195500
b110101101 &
b10 $
1!
b111 %
b1000010100010110 '
#196000
0!
#196500
1!
b1111001 #
b1 %
#197000
0!
#197500
1!
b1111010 #
b1000 %
b11 $
#198000
0!
#198500
1!
b10 %
b110110101 &
b1000100011100110 '
#199000
0!
#199500
1!
b100 %
b110110111 &
b1000100111011010 '
#200000
0!
#200500
1!
b1000 %
b110111011 &
b1000101111000010 '
#201000
0!
#201500
1!
b110 %
b111000011 &
b1000111110010010 '
#202000
0!
#202500
b111001001 &
b10 $
1!
b1 %
b1001001001101110 '
#203000
0!
#203500
1!
b1111011 #
b101 %
b11 $
#204000
0!
#204500
1!
b1001 %
b111001110 &
b1001010011010101 '
#205000
0!
#205500
1!
b111010111 &
b1001100100101000 '
#206000
0!
#206500
1!
b111100000 &
b1001110101111011 '
b1 $
#207000
0!
#207500
1!
b1110010 #
b11 $
#208000
0!
#208500
1!
b100 %
b111101001 &
b1010000101111101 '
#209000
0!
#209500
b111101101 &
b10 $
1!
b101 %
b1010001101000101 '
#210000
0!
#210500
1!
b1110111 #
b10 %
#211000
0!
#211500
1!
b1111001 #
b11 %
#212000
0!
#212500
1!
b1111100 #
b1000 %
b11 $
#213000
0!
#213500
1!
b1001 %
b111110101 &
b1010011100100101 '
#214000
0!
#214500
b111111110 &
b1 $
1!
b1000 %
b1010101110000001 '
#215000
0!
#215500
1!
b1110100 #
b1 %
#216000
0!
#216500
1!
b1110011 #
b110 %
#217000
0!
#217500
1!
b1101101 #
b111 %
b11 $
#218000
0!
#218500
b1000000101 &
b1 $
1!
b1001 %
b1010111001111100 '
#219000
0!
#219500
1!
b1100100 #
b10 %
b11 $
#220000
0!
#220500
1!
b110 %
b1000000111 &
b1010111101000100 '
#221000
0!
#221500
1!
b1000001101 &
b1011000110011100 '
b1 $
#222000
0!
#222500
1!
b1011110 #
b11 %
b11 $
#223000
0!
#223500
b1000010000 &
b1 $
1!
b100 %
b1011001010110110 '
#224000
0!
#224500
1!
b1011010 #
b1 %
b11 $
#225000
0!
#225500
b1000010001 &
b10 $
1!
b100 %
b1011001100010000 '
#226000
0!
#226500
1!
b1011110 #
b110 %
b1 $
#227000
0!
#227500
1!
b1011000 #
b101 %
b10 $
#228000
0!
#228500
1!
b1011101 #
b111 %
b11 $
#229000
0!
#229500
1!
b110 %
b1000011000 &
b1011010110011011 '
#230000
0!
#230500
b1000011110 &
b10 $
1!
b11 %
b1011011111001001 '
#231000
0!
#231500
1!
b1100000 #
b100 %
#232000
0!
#232500
1!
b1100100 #
b11 %
b11 $
#233000
0!
#233500
b1000100001 &
b10 $
1!
b110 %
b1011100011110101 '
#234000
0!
#234500
1!
b1101010 #
b1 %
#235000
0!
#235500
1!
b1101011 #
b101 %
b11 $
#236000
0!
#236500
1!
b111 %
b1000100110 &
b1011101100001100 '
#237000
0!
#237500
b1000101101 &
b1 $
1!
b1000 %
b1011110111111001 '
#238000
0!
#238500
1!
b1100011 #
b100 %
b11 $
#239000
0!
#239500
b1000110001 &
b1 $
1!
b111 %
b1011111110000101 '
#240000
0!
#240500
1!
b1011100 #
b100 %
b10 $
#241000
0!
#241500
1!
b1100000 #
b11 %
b11 $
#242000
0!
#242500
b1000110100 &
b10 $
1!
b111 %
b1100000010100101 '
#243000
0!
#243500
1!
b1100111 #
b11 $
#244000
0!
#244500
1!
b100 %
b1000111011 &
b1100001101110110 '
#245000
0!
#245500
1!
b1 %
b1000111111 &
b1100010100010010 '
#246000
0!
#246500
1!
b1000 %
b1001000000 &
b1100010101111001 '
#247000
0!
#247500
b1001001000 &
b1 $
1!
b101 %
b1100100010110001 '
#248000
0!
#248500
1!
b1100010 #
b110 %
#249000
0!
#249500
1!
b1011100 #
b101 %
b11 $
#250000
0!
#250500
1!
b11 %
b1001001101 &
b1100101001111101 '
#251000
0!
#251500
b1001010000 &
b10 $
1!
b110 %
b1100101110010001 '
#252000
0!
#252500
1!
b1100010 #
b1000 %
b11 $
#253000
0!
#253500
1!
b10 %
b1001011000 &
b1100111010100001 '
#254000
0!
#254500
1!
b111 %
b1001011010 &
b1100111101100101 '
#255000
0!
#255500
1!
b1001100001 &
b1101001000010011 '
b10 $
#256000
0!
#256500
1!
b1101001 #
b1000 %
#257000
0!
#257500
1!
b1110001 #
b11 %
#258000
0!
#258500
1!
b1110100 #
b1 $
#259000
0!
#259500
1!
b1110001 #
b1 %
b10 $
#260000
0!
#260500
1!
b1110010 #
#261000
0!
#261500
1!
b1110011 #
b110 %
b11 $
#262000
0!
#262500
1!
b1001 %
b1001100111 &
b1101010011000101 '
#263000
0!
#263500
1!
b100 %
b1001110000 &
b1101100011010000 '
#264000
0!
#264500
1!
b1001 %
b1001110100 &
b1101101010011100 '
#265000
0!
#265500
1!
b110 %
b1001111101 &
b1101111010100111 '
#266000
0!
#266500
b1010000011 &
b10 $
1!
b1 %
b1110000101011001 '
#267000
0!
#267500
1!
b1110100 #
b1001 %
b11 $
#268000
0!
#268500
b1010001100 &
b10 $
1!
b110 %
b1110010101101101 '
#269000
0!
#269500
1!
b1111010 #
b1000 %
#270000
0!
#270500
1!
b10000010 #
b101 %
b1 $
#271000
0!
#271500
1!
b1111101 #
b1000 %
b10 $
#272000
0!
#272500
1!
b10000101 #
b100 %
b11 $
#273000
0!
#273500
1!
b10 %
b1010010000 &
b1110011110000001 '
#274000
0!
#274500
b1010010010 &
b1 $
1!
b110 %
b1110100010001011 '
#275000
0!
#275500
1!
b1111111 #
b1001 %
b10 $
#276000
0!
#276500
1!
b10001000 #
b110 %
b11 $
#277000
0!
#277500
b1010011000 &
b10 $
1!
b1001 %
b1110101110111011 '
#278000
0!
#278500
1!
b10010001 #
b110 %
#279000
0!
#279500
1!
b10010111 #
#280000
0!
#280500
1!
b10011101 #
b10 %
b11 $
#281000
0!
#281500
b1010011010 &
b1 $
1!
b1000 %
b1110110011110101 '
#282000
0!
#282500
1!
b10010101 #
b111 %
b10 $
#283000
0!
#283500
1!
b10011100 #
b10 %
#284000
0!
#284500
1!
b10011110 #
b11 $
#285000
0!
#285500
1!
b1010011100 &
b1110111000110001 '
#286000
0!
#286500
b1010011110 &
b10 $
1!
b1 %
b1110111101101101 '
#287000
0!
#287500
1!
b10011111 #
b1000 %
b1 $
#288000
0!
#288500
1!
b10010111 #
b101 %
b10 $
#289000
0!
#289500
1!
b10011100 #
b1001 %
b11 $
#290000
0!
#290500
1!
b101 %
b1010100111 &
b1111010011101001 '
#291000
0!
#291500
1!
b1000 %
b1010101100 &
b1111011111110101 '
#292000
0!
#292500
1!
b1010110100 &
b1111110011010101 '
#293000
0!
#293500
1!
b1 %
b1010111100 &
b10000000110110101 '
#294000
0!
#294500
b1010111101 &
b10 $
1!
b10 %
b10000001001010001 '
#295000
0!
#295500
1!
b10011110 #
b111 %
#296000
0!
#296500
1!
b10100101 #
b101 %
b1 $
#297000
0!
#297500
1!
b10100000 #
b1001 %
b11 $
#298000
0!
#298500
1!
b100 %
b1011000110 &
b10000011111110001 '
#299000
0!
#299500
1!
b1011001010 &
b10000101001110001 '
#300000
0!
#300500
1!
b110 %
b1011001110 &
b10000110011110001 '
#301000
0!
#301500
b1011010100 &
b10 $
1!
b111 %
b10001000010110001 '
#302000
0!
#302500
1!
b10100111 #
b101 %
b1 $
#303000
0!
#303500
1!
b10100010 #
b11 $
#304000
0!
#304500
b1011011001 &
b1 $
1!
b1001 %
b10001001111011011 '
#305000
0!
#305500
1!
b10011001 #
b111 %
b10 $
#306000
0!
#306500
1!
b10100000 #
b100 %
#307000
0!
#307500
1!
b10100100 #
b1001 %
#308000
0!
#308500
1!
b10101101 #
b111 %
b11 $
#309000
0!
#309500
b1011100000 &
b1 $
1!
b100 %
b10001100010010110 '
#310000
0!
#310500
1!
b10101001 #
b1 %
b10 $
#311000
0!
#311500
1!
b10101010 #
b110 %
#312000
0!
#312500
1!
b10110000 #
b10 %
b1 $
#313000
0!
#313500
1!
b10101110 #
b110 %
#314000
0!
#314500
1!
b10101000 #
b10 %
b10 $
#315000
0!
#315500
1!
b10101010 #
b1001 %
b11 $
#316000
0!
#316500
b1011101001 &
b10 $
1!
b11 %
b10001111010010000 '
#317000
0!
#317500
1!
b10101101 #
b11 $
#318000
0!
#318500
1!
b100 %
b1011101100 &
b10010000010010111 '
#319000
0!
#319500
1!
b1 %
b1011110000 &
b10010001101001011 '
#320000
0!
#320500
b1011110001 &
b1 $
1!
b10 %
b10010001111111000 '
#321000
0!
#321500
1!
b10101011 #
b110 %
b11 $
#322000
0!
#322500
b1011110111 &
b10 $
1!
b11 %
b10010011111111010 '
#323000
0!
#323500
1!
b10101110 #
b10 %
b11 $
#324000
0!
#324500
b1011111001 &
b10 $
1!
b1001 %
b10010100101010110 '
#325000
0!
#325500
1!
b10110111 #
b1000 %
b11 $
#326000
0!
#326500
1!
b11 %
b1100000001 &
b10010111100001110 '
#327000
0!
#327500
1!
b10 %
b1100000100 &
b10011000100110011 '
#328000
0!
#328500
b1100000110 &
b1 $
1!
b101 %
b10011001010100001 '
#329000
0!
#329500
1!
b10110010 #
b11 %
b11 $
#330000
0!
#330500
1!
b1 %
b1100001001 &
b10011010010110111 '
#331000
0!
#331500
b1100001010 &
b10 $
1!
b1000 %
b10011010101101001 '
#332000
0!
#332500
1!
b10111010 #
b10 %
b1 $
#333000
0!
#333500
1!
b10111000 #
b100 %
#334000
0!
#334500
1!
b10110100 #
b101 %
#335000
0!
#335500
1!
b10101111 #
b11 %
b10 $
#336000
0!
#336500
1!
b10110010 #
b110 %
#337000
0!
#337500
1!
b10111000 #
b1 %
#338000
0!
#338500
1!
b10111001 #
b100 %
b11 $
#339000
0!
#339500
b1100001110 &
b1 $
1!
b11 %
b10011100001001101 '
#340000
0!
#340500
1!
b10110110 #
b1 %
b10 $
#341000
0!
#341500
1!
b10110111 #
b100 %
#342000
0!
#342500
1!
b10111011 #
b110 %
b1 $
#343000
0!
#343500
1!
b10110101 #
b1000 %
b11 $
#344000
0!
#344500
b1100010110 &
b10 $
1!
b101 %
b10011110111110101 '
#345000
0!
#345500
1!
b10111010 #
b111 %
#346000
0!
#346500
1!
b11000001 #
#347000
0!
#347500
1!
b11001000 #
b1001 %
b11 $
#348000
0!
#348500
1!
b1100011111 &
b10100010011111101 '
#349000
0!
#349500
b1100101000 &
b10 $
1!
b10 %
b10100110000000101 '
#350000
0!
#350500
1!
b11001010 #
b1 $
#351000
0!
#351500
1!
b11001000 #
b101 %
b10 $
#352000
0!
#352500
1!
b11001101 #
b11 $
#353000
0!
#353500
1!
b100 %
b1100101101 &
b10101000000000110 '
#354000
0!
#354500
b1100110001 &
b10 $
1!
b111 %
b10101001100111010 '
#355000
0!
#355500
1!
b11010100 #
b100 %
b11 $
#356000
0!
#356500
b1100110101 &
b10 $
1!
b10 %
b10101011010001010 '
#357000
0!
#357500
1!
b11010110 #
b11 $
#358000
0!
#358500
1!
b100 %
b1100110111 &
b10101100000110110 '
#359000
0!
#359500
b1100111011 &
b1 $
1!
b1000 %
b10101101110001110 '
#360000
0!
#360500
1!
b11001110 #
b10 $
#361000
0!
#361500
1!
b11010110 #
b100 %
b1 $
#362000
0!
#362500
1!
b11010010 #
b10 %
b11 $
#363000
0!
#363500
1!
b1100111101 &
b10101110100110010 '
#364000
0!
#364500
b1100111111 &
b1 $
1!
b1000 %
b10101111011010110 '
#365000
0!
#365500
1!
b11001010 #
b10 %
b11 $
#366000
0!
#366500
b1101000001 &
b10 $
1!
b11 %
b10110000001101010 '
#367000
0!
#367500
1!
b11001101 #
b111 %
#368000
0!
#368500
1!
b11010100 #
b1001 %
#369000
0!
#369500
1!
b11011101 #
b110 %
b1 $
#370000
0!
#370500
1!
b11010111 #
b11 %
#371000
0!
#371500
1!
b11010100 #
b10 %
b11 $
#372000
0!
#372500
1!
b11 %
b1101000011 &
b10110001000010010 '
#373000
0!
#373500
b1101000110 &
b1 $
1!
b1000 %
b10110010010001110 '
#374000
0!
#374500
1!
b11001100 #
b110 %
b11 $
#375000
0!
#375500
b1101001100 &
b1 $
1!
b1000 %
b10110100101010110 '
#376000
0!
#376500
1!
b11000100 #
b1 %
#377000
0!
#377500
1!
b11000011 #
b110 %
b10 $
#378000
0!
#378500
1!
b11001001 #
b1000 %
#379000
0!
#379500
1!
b11010001 #
b1001 %
b1 $
#380000
0!
#380500
1!
b11001000 #
b1 %
b10 $
#381000
0!
#381500
1!
b11001001 #
b1000 %
b1 $
#382000
0!
#382500
1!
b11000001 #
b1001 %
b11 $
#383000
0!
#383500
1!
b100 %
b1101010101 &
b10111000000011111 '
#384000
0!
#384500
1!
b1001 %
b1101011001 &
b10111001100100011 '
#385000
0!
#385500
1!
b1000 %
b1101100010 &
b10111100111101100 '
#386000
0!
#386500
1!
b1 %
b1101101010 &
b10111111111110100 '
#387000
0!
#387500
b1101101011 &
b10 $
1!
b110 %
b11000000010110101 '
#388000
0!
#388500
1!
b11000111 #
b111 %
#389000
0!
#389500
1!
b11001110 #
b101 %
b1 $
#390000
0!
#390500
1!
b11001001 #
b1 %
b10 $
#391000
0!
#391500
1!
b11001010 #
b1001 %
b11 $
#392000
0!
#392500
1!
b1101110100 &
b11000011111001111 '
b10 $
#393000
0!
#393500
1!
b11010011 #
b111 %
b11 $
#394000
0!
#394500
b1101111011 &
b10 $
1!
b101 %
b11000110110010100 '
#395000
0!
#395500
1!
b11011000 #
b111 %
b11 $
#396000
0!
#396500
b1110000010 &
b10 $
1!
b1 %
b11001001101111100 '
#397000
0!
#397500
1!
b11011001 #
b100 %
#398000
0!
#398500
1!
b11011101 #
#399000
0!
#399500
1!
b11100001 #
b110 %
b11 $
#400000
0!
#400500
1!
b1 %
b1110001000 &
b11001100011000010 '
#401000
0!
#401500
b1110001001 &
b1 $
1!
b100 %
b11001100110100011 '
#402000
0!
#402500
1!
b11011101 #
b10 %
#403000
0!
#403500
1!
b11011011 #
b111 %
b11 $
#404000
0!
#404500
b1110010000 &
b10 $
1!
b110 %
b11001111110100000 '
#405000
0!
#405500
1!
b11100001 #
b10 %
#406000
0!
#406500
1!
b11100011 #
b11 %
#407000
0!
#407500
1!
b11100110 #
b111 %
b1 $
#408000
0!
#408500
1!
b11011111 #
b1 %
#409000
0!
#409500
1!
b11011110 #
b110 %
b10 $
#410000
0!
#410500
1!
b11100100 #
#411000
0!
#411500
1!
b11101010 #
b1000 %
#412000
0!
#412500
1!
b11110010 #
#413000
0!
#413500
1!
b11111010 #
b101 %
b11 $
#414000
0!
#414500
1!
b1 %
b1110010101 &
b11010010010000010 '
#415000
0!
#415500
1!
b101 %
b1110010110 &
b11010010101111100 '
#416000
0!
#416500
b1110011011 &
b1 $
1!
b1000 %
b11010101001011110 '
#417000
0!
#417500
1!
b11110010 #
b11 $
#418000
0!
#418500
1!
b1110100011 &
b11011000111101110 '
b1 $
#419000
0!
#419500
1!
b11101010 #
b1 %
b11 $
#420000
0!
#420500
b1110100100 &
b10 $
1!
b1001 %
b11011001011011000 '
#421000
0!
#421500
1!
b11110011 #
b1 %
b11 $
#422000
0!
#422500
b1110100101 &
b1 $
1!
b111 %
b11011001111001011 '
#423000
0!
#423500
1!
b11101100 #
b11 %
#424000
0!
#424500
1!
b11101001 #
b1 %
b10 $
#425000
0!
#425500
1!
b11101010 #
b1001 %
#426000
0!
#426500
1!
b11110011 #
b10 %
b1 $
#427000
0!
#427500
1!
b11110001 #
b11 %
b10 $
#428000
0!
#428500
1!
b11110100 #
b10 %
#429000
0!
#429500
1!
b11110110 #
b1001 %
b11 $
#430000
0!
#430500
1!
b1110101110 &
b11011110001110001 '
b1 $
#431000
0!
#431500
1!
b11101101 #
b1 %
#432000
0!
#432500
1!
b11101100 #
b101 %
#433000
0!
#433500
1!
b11100111 #
b1000 %
b11 $
#434000
0!
#434500
b1110110110 &
b10 $
1!
b11 %
b11100001110101001 '
#435000
0!
#435500
1!
b11101010 #
b111 %
#436000
0!
#436500
1!
b11110001 #
b11 $
#437000
0!
#437500
b1110111101 &
b10 $
1!
b1000 %
b11100101001000000 '
#438000
0!
#438500
1!
b11111001 #
b101 %
#439000
0!
#439500
1!
b11111110 #
#440000
0!
#440500
1!
b100000011 #
b100 %
#441000
0!
#441500
1!
b100000111 #
b111 %
#442000
0!
#442500
1!
b100001110 #
b110 %
b11 $
#443000
0!
#443500
1!
b1111000011 &
b11101000010010100 '
#444000
0!
#444500
1!
b100 %
b1111001001 &
b11101011011101000 '
#445000
0!
#445500
1!
b110 %
b1111001101 &
b11101101100100000 '
#446000
0!
#446500
1!
b11 %
b1111010011 &
b11110000101110100 '
#447000
0!
